{
  "errno": 0,
  "data": {
    "total": 238,
    "pages": 24,
    "limit": 10,
    "page": 12,
    "list": [
      {
        "id": 1033000,
        "name": "新生彩棉初衣礼盒（婴童）",
        "brief": "来自天然彩棉的礼物",
        "picUrl": "http://yanxuan.nosdn.127.net/9aab9a0bf4fef8fe3dc8c732bc22d4b7.png",
        "isNew": false,
        "isHot": false,
        "counterPrice": 219,
        "retailPrice": 199
      },
      {
        "id": 1129016,
        "name": "新疆阿瓦提长绒棉弱捻超柔毛巾",
        "brief": "瞬间吸水，亲肤不掉毛。",
        "picUrl": "http://yanxuan.nosdn.127.net/a7c7eec41194e65d64931a2d08ef4f8c.png",
        "isNew": false,
        "isHot": false,
        "counterPrice": 49,
        "retailPrice": 29
      },
      {
        "id": 1109005,
        "name": "方圆木钟",
        "brief": "坚硬榉木，实木雕刻",
        "picUrl": "http://yanxuan.nosdn.127.net/7f508253f65733c7b2af52dd3943ee28.png",
        "isNew": false,
        "isHot": false,
        "counterPrice": 99,
        "retailPrice": 79
      },
      {
        "id": 1064004,
        "name": "方形封闭式宠物窝",
        "brief": "封闭式设计猫咪独享",
        "picUrl": "http://yanxuan.nosdn.127.net/337da7094c1df295ca0f0b8baa55b2d5.png",
        "isNew": false,
        "isHot": false,
        "counterPrice": 119,
        "retailPrice": 99
      },
      {
        "id": 1009024,
        "name": "日式和风懒人沙发",
        "brief": "优质莱卡纯棉，和风家居新体验",
        "picUrl": "http://yanxuan.nosdn.127.net/149dfa87a7324e184c5526ead81de9ad.png",
        "isNew": false,
        "isHot": false,
        "counterPrice": 619,
        "retailPrice": 599
      },
      {
        "id": 1115052,
        "name": "日式和风蔺草蒲团坐垫",
        "brief": "龙眉蔺草编织 日式茶禅风",
        "picUrl": "http://yanxuan.nosdn.127.net/39dea35a3ea2361e4b054ee2f421af53.png",
        "isNew": false,
        "isHot": false,
        "counterPrice": 106,
        "retailPrice": 86
      },
      {
        "id": 1071004,
        "name": "日式圆形宠物盆猫砂盆",
        "brief": "日式配色，圆滑细腻",
        "picUrl": "http://yanxuan.nosdn.127.net/f0abf2bf11c8d303212e4a0c1106bb73.png",
        "isNew": false,
        "isHot": false,
        "counterPrice": 109,
        "retailPrice": 89
      },
      {
        "id": 1135058,
        "name": "日式多功能手卷午睡枕坐垫",
        "brief": "全棉针织条纹，透气按摩粒子",
        "picUrl": "http://yanxuan.nosdn.127.net/37bc0fa3524a904ac740340fa92bd515.png",
        "isNew": false,
        "isHot": false,
        "counterPrice": 99,
        "retailPrice": 79
      },
      {
        "id": 1092038,
        "name": "日式天然桐木材质猫抓板",
        "brief": "天然桐木，耐磨耐抓",
        "picUrl": "http://yanxuan.nosdn.127.net/1aba9ed9c9160b9ca8e7de58ce4e46b1.png",
        "isNew": false,
        "isHot": false,
        "counterPrice": 59,
        "retailPrice": 39
      },
      {
        "id": 1115053,
        "name": "日式天然蔺草席三件套",
        "brief": "龙眉蔺草密经编织 爽滑沁凉",
        "picUrl": "http://yanxuan.nosdn.127.net/fabf9ac36751a2e1322135c56f1dc338.png",
        "isNew": false,
        "isHot": true,
        "counterPrice": 319,
        "retailPrice": 299
      }
    ],
    "filterCategoryList": [
      {
        "id": 1005007,
        "name": "锅具",
        "keywords": "",
        "desc": "一口好锅，炖煮生活一日三餐",
        "pid": 1005001,
        "iconUrl": "http://yanxuan.nosdn.127.net/4aab4598017b5749e3b63309d25e9f6b.png",
        "picUrl": "http://yanxuan.nosdn.127.net/d2db0d1d0622c621a8aa5a7c06b0fc6d.png",
        "level": "L2",
        "sortOrder": 1,
        "addTime": "2018-02-01 00:00:00",
        "updateTime": "2018-02-01 00:00:00",
        "deleted": false
      },
      {
        "id": 1008001,
        "name": "毛巾",
        "keywords": "",
        "desc": "日本皇室专供，内野制造商出品",
        "pid": 1013001,
        "iconUrl": "http://yanxuan.nosdn.127.net/44ad9a739380aa6b7cf956fb2a06e7a7.png",
        "picUrl": "http://yanxuan.nosdn.127.net/c53d2dd5ba6b1cfb55bd42ea0783f051.png",
        "level": "L2",
        "sortOrder": 1,
        "addTime": "2018-02-01 00:00:00",
        "updateTime": "2018-02-01 00:00:00",
        "deleted": false
      },
      {
        "id": 1008002,
        "name": "布艺软装",
        "keywords": "",
        "desc": "各种风格软装装点你的家",
        "pid": 1005000,
        "iconUrl": "http://yanxuan.nosdn.127.net/8bbcd7de60a678846664af998f57e71c.png",
        "picUrl": "http://yanxuan.nosdn.127.net/2e2fb4f2856a021bbcd1b4c8400f2b06.png",
        "level": "L2",
        "sortOrder": 6,
        "addTime": "2018-02-01 00:00:00",
        "updateTime": "2018-02-01 00:00:00",
        "deleted": false
      },
      {
        "id": 1008008,
        "name": "被枕",
        "keywords": "",
        "desc": "守护你的睡眠时光",
        "pid": 1005000,
        "iconUrl": "http://yanxuan.nosdn.127.net/927bc33f7ae2895dd6c11cf91f5e3228.png",
        "picUrl": "http://yanxuan.nosdn.127.net/b43ef7cececebe6292d2f7f590522e05.png",
        "level": "L2",
        "sortOrder": 2,
        "addTime": "2018-02-01 00:00:00",
        "updateTime": "2018-02-01 00:00:00",
        "deleted": false
      },
      {
        "id": 1008009,
        "name": "床品件套",
        "keywords": "",
        "desc": "MUJI等品牌制造商出品",
        "pid": 1005000,
        "iconUrl": "http://yanxuan.nosdn.127.net/243e5bf327a87217ad1f54592f0176ec.png",
        "picUrl": "http://yanxuan.nosdn.127.net/81f671bd36bce05d5f57827e5c88dd1b.png",
        "level": "L2",
        "sortOrder": 4,
        "addTime": "2018-02-01 00:00:00",
        "updateTime": "2018-02-01 00:00:00",
        "deleted": false
      },
      {
        "id": 1008015,
        "name": "糕点",
        "keywords": "",
        "desc": "四季糕点，用心烘焙",
        "pid": 1005002,
        "iconUrl": "http://yanxuan.nosdn.127.net/93168242df456b5f7bf3c89653b3db76.png",
        "picUrl": "http://yanxuan.nosdn.127.net/66ea1d6ad602a8e441af7cada93bdc7a.png",
        "level": "L2",
        "sortOrder": 1,
        "addTime": "2018-02-01 00:00:00",
        "updateTime": "2018-02-01 00:00:00",
        "deleted": false
      },
      {
        "id": 1008016,
        "name": "灯具",
        "keywords": "",
        "desc": "一盏灯，温暖一个家",
        "pid": 1005000,
        "iconUrl": "http://yanxuan.nosdn.127.net/c48e0d9dcfac01499a437774a915842b.png",
        "picUrl": "http://yanxuan.nosdn.127.net/f702dc399d14d4e1509d5ed6e57acd19.png",
        "level": "L2",
        "sortOrder": 8,
        "addTime": "2018-02-01 00:00:00",
        "updateTime": "2018-02-01 00:00:00",
        "deleted": false
      },
      {
        "id": 1010002,
        "name": "内裤",
        "keywords": "",
        "desc": "来自李维斯、爱慕等制造商",
        "pid": 1010000,
        "iconUrl": "http://yanxuan.nosdn.127.net/364269344ed69adafe1b70ab7998fc50.png",
        "picUrl": "http://yanxuan.nosdn.127.net/0a7fe0a08c195ca2cf55d12cd3c30f09.png",
        "level": "L2",
        "sortOrder": 1,
        "addTime": "2018-02-01 00:00:00",
        "updateTime": "2018-02-01 00:00:00",
        "deleted": false
      },
      {
        "id": 1011004,
        "name": "家饰",
        "keywords": "",
        "desc": "装饰你的家",
        "pid": 1005000,
        "iconUrl": "http://yanxuan.nosdn.127.net/ab0df9445d985bf6719ac415313a8e88.png",
        "picUrl": "http://yanxuan.nosdn.127.net/79275db76b5865e6167b0fbd141f2d7e.png",
        "level": "L2",
        "sortOrder": 9,
        "addTime": "2018-02-01 00:00:00",
        "updateTime": "2018-02-01 00:00:00",
        "deleted": false
      },
      {
        "id": 1012001,
        "name": "功能箱包",
        "keywords": "",
        "desc": "范思哲、Coach等品牌制造商出品",
        "pid": 1008000,
        "iconUrl": "http://yanxuan.nosdn.127.net/3050a2b3052d766c4b460d4b766353a3.png",
        "picUrl": "http://yanxuan.nosdn.127.net/0645dcda6172118f9295630c2a6f234f.png",
        "level": "L2",
        "sortOrder": 1,
        "addTime": "2018-02-01 00:00:00",
        "updateTime": "2018-02-01 00:00:00",
        "deleted": false
      },
      {
        "id": 1012003,
        "name": "文具",
        "keywords": "",
        "desc": "找回书写的力量",
        "pid": 1012000,
        "iconUrl": "http://yanxuan.nosdn.127.net/e1743239e41ca9af76875aedc73be7f0.png",
        "picUrl": "http://yanxuan.nosdn.127.net/e074795f61a83292d0f20eb7d124e2ac.png",
        "level": "L2",
        "sortOrder": 1,
        "addTime": "2018-02-01 00:00:00",
        "updateTime": "2018-02-01 00:00:00",
        "deleted": false
      },
      {
        "id": 1015000,
        "name": "家具",
        "keywords": "",
        "desc": "大师级工艺",
        "pid": 1005000,
        "iconUrl": "http://yanxuan.nosdn.127.net/4f00675caefd0d4177892ad18bfc2df6.png",
        "picUrl": "http://yanxuan.nosdn.127.net/d5d41841136182bf49c1f99f5c452dd6.png",
        "level": "L2",
        "sortOrder": 7,
        "addTime": "2018-02-01 00:00:00",
        "updateTime": "2018-02-01 00:00:00",
        "deleted": false
      },
      {
        "id": 1017000,
        "name": "宠物",
        "keywords": "",
        "desc": "抑菌除味，打造宠物舒适空间",
        "pid": 1005000,
        "iconUrl": "http://yanxuan.nosdn.127.net/a0352c57c60ce4f68370ecdab6a30857.png",
        "picUrl": "http://yanxuan.nosdn.127.net/dae4d6e89ab8a0cd3e8da026e4660137.png",
        "level": "L2",
        "sortOrder": 10,
        "addTime": "2018-02-01 00:00:00",
        "updateTime": "2018-02-01 00:00:00",
        "deleted": false
      },
      {
        "id": 1020003,
        "name": "服饰",
        "keywords": "",
        "desc": "萌宝穿搭，柔软舒适触感",
        "pid": 1011000,
        "iconUrl": "http://yanxuan.nosdn.127.net/4e50f3c4e4d0a64cd0ad14cfc0b6bd17.png",
        "picUrl": "http://yanxuan.nosdn.127.net/004f5f96df4aeb0645abbd70c0637239.png",
        "level": "L2",
        "sortOrder": 1,
        "addTime": "2018-02-01 00:00:00",
        "updateTime": "2018-02-01 00:00:00",
        "deleted": false
      },
      {
        "id": 1032000,
        "name": "魔兽世界",
        "keywords": "",
        "desc": "艾泽拉斯的冒险，才刚刚开始",
        "pid": 1019000,
        "iconUrl": "http://yanxuan.nosdn.127.net/336f0186a9920eb0f93a3912f3662ffe.png",
        "picUrl": "http://yanxuan.nosdn.127.net/becfba90e8a5c95d403b8a6b9bb77825.png",
        "level": "L2",
        "sortOrder": 1,
        "addTime": "2018-02-01 00:00:00",
        "updateTime": "2018-02-01 00:00:00",
        "deleted": false
      },
      {
        "id": 1036000,
        "name": "夏凉",
        "keywords": "",
        "desc": "夏凉床品，舒适一夏",
        "pid": 1005000,
        "iconUrl": "http://yanxuan.nosdn.127.net/13ff4decdf38fe1a5bde34f0e0cc635a.png",
        "picUrl": "http://yanxuan.nosdn.127.net/bd17c985bacb9b9ab1ab6e9d66ee343c.png",
        "level": "L2",
        "sortOrder": 1,
        "addTime": "2018-02-01 00:00:00",
        "updateTime": "2018-02-01 00:00:00",
        "deleted": false
      }
    ]
  },
  "errmsg": "成功"
}