{
  "errno": 0,
  "data": {
    "total": 238,
    "pages": 24,
    "limit": 10,
    "page": 1,
    "list": [
      {
        "id": 1025005,
        "name": "100年传世珐琅锅",
        "brief": "特质铸铁，锁热节能",
        "picUrl": "http://yanxuan.nosdn.127.net/49e26f00ca4d0ce00f9960d22c936738.png",
        "isNew": false,
        "isHot": false,
        "counterPrice": 288,
        "retailPrice": 268
      },
      {
        "id": 1023003,
        "name": "100年传世珐琅锅 全家系列",
        "brief": "特质铸铁，大容量全家共享",
        "picUrl": "http://yanxuan.nosdn.127.net/c39d54c06a71b4b61b6092a0d31f2335.png",
        "isNew": false,
        "isHot": false,
        "counterPrice": 418,
        "retailPrice": 398
      },
      {
        "id": 1038004,
        "name": "100年传世珐琅锅 马卡龙系列",
        "brief": "均匀导热，释放美味",
        "picUrl": "http://yanxuan.nosdn.127.net/4d3d3eaeb872860539d7faa59f9f84e9.png",
        "isNew": false,
        "isHot": false,
        "counterPrice": 379,
        "retailPrice": 359
      },
      {
        "id": 1114011,
        "name": "104升 纯PC拉链斜纹拉杆箱",
        "brief": "104升的体积，90升的价格",
        "picUrl": "http://yanxuan.nosdn.127.net/196b5ce11930b4eadaec563cb0406634.png",
        "isNew": false,
        "isHot": false,
        "counterPrice": 319,
        "retailPrice": 299
      },
      {
        "id": 1143016,
        "name": "112升 纯PC拉链斜纹拉杆箱",
        "brief": "容量升级，全家一箱搞定",
        "picUrl": "http://yanxuan.nosdn.127.net/e56c6239ee4a641ce2a4565c6babb43e.png",
        "isNew": false,
        "isHot": false,
        "counterPrice": 339,
        "retailPrice": 319
      },
      {
        "id": 1030002,
        "name": "160*230羊毛圈绒枪刺地毯",
        "brief": "印度进口，手工枪刺，简约百搭",
        "picUrl": "http://yanxuan.nosdn.127.net/8b9328496990357033d4259fda250679.png",
        "isNew": false,
        "isHot": false,
        "counterPrice": 919,
        "retailPrice": 899
      },
      {
        "id": 1030003,
        "name": "160*230羊毛手工几何地毯",
        "brief": "几何图案，打造立体的时尚感",
        "picUrl": "http://yanxuan.nosdn.127.net/1d1ab099dc0e254c15e57302e78e200b.png",
        "isNew": false,
        "isHot": false,
        "counterPrice": 1489,
        "retailPrice": 1469
      },
      {
        "id": 1030001,
        "name": "160*230羊毛手工地毯",
        "brief": "印度进口，手工编织，简约百搭",
        "picUrl": "http://yanxuan.nosdn.127.net/88dc5d80c6f84102f003ecd69c86e1cf.png",
        "isNew": false,
        "isHot": false,
        "counterPrice": 989,
        "retailPrice": 969
      },
      {
        "id": 1113019,
        "name": "20寸 PC膜拉链登机箱",
        "brief": "热卖9万只，网易人手1只",
        "picUrl": "http://yanxuan.nosdn.127.net/ad504bb389039ff35c4cd6ae912be87e.png",
        "isNew": false,
        "isHot": false,
        "counterPrice": 228,
        "retailPrice": 208
      },
      {
        "id": 1156006,
        "name": "20寸 全铝镁合金登机箱",
        "brief": "100%铝镁合金，超薄坚固",
        "picUrl": "http://yanxuan.nosdn.127.net/ea5b0a572b35089446fba491db7fbbc3.png",
        "isNew": false,
        "isHot": false,
        "counterPrice": 719,
        "retailPrice": 699
      }
    ],
    "filterCategoryList": [
      {
        "id": 1005007,
        "name": "锅具",
        "keywords": "",
        "desc": "一口好锅，炖煮生活一日三餐",
        "pid": 1005001,
        "iconUrl": "http://yanxuan.nosdn.127.net/4aab4598017b5749e3b63309d25e9f6b.png",
        "picUrl": "http://yanxuan.nosdn.127.net/d2db0d1d0622c621a8aa5a7c06b0fc6d.png",
        "level": "L2",
        "sortOrder": 1,
        "addTime": "2018-02-01 00:00:00",
        "updateTime": "2018-02-01 00:00:00",
        "deleted": false
      },
      {
        "id": 1008001,
        "name": "毛巾",
        "keywords": "",
        "desc": "日本皇室专供，内野制造商出品",
        "pid": 1013001,
        "iconUrl": "http://yanxuan.nosdn.127.net/44ad9a739380aa6b7cf956fb2a06e7a7.png",
        "picUrl": "http://yanxuan.nosdn.127.net/c53d2dd5ba6b1cfb55bd42ea0783f051.png",
        "level": "L2",
        "sortOrder": 1,
        "addTime": "2018-02-01 00:00:00",
        "updateTime": "2018-02-01 00:00:00",
        "deleted": false
      },
      {
        "id": 1008002,
        "name": "布艺软装",
        "keywords": "",
        "desc": "各种风格软装装点你的家",
        "pid": 1005000,
        "iconUrl": "http://yanxuan.nosdn.127.net/8bbcd7de60a678846664af998f57e71c.png",
        "picUrl": "http://yanxuan.nosdn.127.net/2e2fb4f2856a021bbcd1b4c8400f2b06.png",
        "level": "L2",
        "sortOrder": 6,
        "addTime": "2018-02-01 00:00:00",
        "updateTime": "2018-02-01 00:00:00",
        "deleted": false
      },
      {
        "id": 1008008,
        "name": "被枕",
        "keywords": "",
        "desc": "守护你的睡眠时光",
        "pid": 1005000,
        "iconUrl": "http://yanxuan.nosdn.127.net/927bc33f7ae2895dd6c11cf91f5e3228.png",
        "picUrl": "http://yanxuan.nosdn.127.net/b43ef7cececebe6292d2f7f590522e05.png",
        "level": "L2",
        "sortOrder": 2,
        "addTime": "2018-02-01 00:00:00",
        "updateTime": "2018-02-01 00:00:00",
        "deleted": false
      },
      {
        "id": 1008009,
        "name": "床品件套",
        "keywords": "",
        "desc": "MUJI等品牌制造商出品",
        "pid": 1005000,
        "iconUrl": "http://yanxuan.nosdn.127.net/243e5bf327a87217ad1f54592f0176ec.png",
        "picUrl": "http://yanxuan.nosdn.127.net/81f671bd36bce05d5f57827e5c88dd1b.png",
        "level": "L2",
        "sortOrder": 4,
        "addTime": "2018-02-01 00:00:00",
        "updateTime": "2018-02-01 00:00:00",
        "deleted": false
      },
      {
        "id": 1008015,
        "name": "糕点",
        "keywords": "",
        "desc": "四季糕点，用心烘焙",
        "pid": 1005002,
        "iconUrl": "http://yanxuan.nosdn.127.net/93168242df456b5f7bf3c89653b3db76.png",
        "picUrl": "http://yanxuan.nosdn.127.net/66ea1d6ad602a8e441af7cada93bdc7a.png",
        "level": "L2",
        "sortOrder": 1,
        "addTime": "2018-02-01 00:00:00",
        "updateTime": "2018-02-01 00:00:00",
        "deleted": false
      },
      {
        "id": 1008016,
        "name": "灯具",
        "keywords": "",
        "desc": "一盏灯，温暖一个家",
        "pid": 1005000,
        "iconUrl": "http://yanxuan.nosdn.127.net/c48e0d9dcfac01499a437774a915842b.png",
        "picUrl": "http://yanxuan.nosdn.127.net/f702dc399d14d4e1509d5ed6e57acd19.png",
        "level": "L2",
        "sortOrder": 8,
        "addTime": "2018-02-01 00:00:00",
        "updateTime": "2018-02-01 00:00:00",
        "deleted": false
      },
      {
        "id": 1010002,
        "name": "内裤",
        "keywords": "",
        "desc": "来自李维斯、爱慕等制造商",
        "pid": 1010000,
        "iconUrl": "http://yanxuan.nosdn.127.net/364269344ed69adafe1b70ab7998fc50.png",
        "picUrl": "http://yanxuan.nosdn.127.net/0a7fe0a08c195ca2cf55d12cd3c30f09.png",
        "level": "L2",
        "sortOrder": 1,
        "addTime": "2018-02-01 00:00:00",
        "updateTime": "2018-02-01 00:00:00",
        "deleted": false
      },
      {
        "id": 1011004,
        "name": "家饰",
        "keywords": "",
        "desc": "装饰你的家",
        "pid": 1005000,
        "iconUrl": "http://yanxuan.nosdn.127.net/ab0df9445d985bf6719ac415313a8e88.png",
        "picUrl": "http://yanxuan.nosdn.127.net/79275db76b5865e6167b0fbd141f2d7e.png",
        "level": "L2",
        "sortOrder": 9,
        "addTime": "2018-02-01 00:00:00",
        "updateTime": "2018-02-01 00:00:00",
        "deleted": false
      },
      {
        "id": 1012001,
        "name": "功能箱包",
        "keywords": "",
        "desc": "范思哲、Coach等品牌制造商出品",
        "pid": 1008000,
        "iconUrl": "http://yanxuan.nosdn.127.net/3050a2b3052d766c4b460d4b766353a3.png",
        "picUrl": "http://yanxuan.nosdn.127.net/0645dcda6172118f9295630c2a6f234f.png",
        "level": "L2",
        "sortOrder": 1,
        "addTime": "2018-02-01 00:00:00",
        "updateTime": "2018-02-01 00:00:00",
        "deleted": false
      },
      {
        "id": 1012003,
        "name": "文具",
        "keywords": "",
        "desc": "找回书写的力量",
        "pid": 1012000,
        "iconUrl": "http://yanxuan.nosdn.127.net/e1743239e41ca9af76875aedc73be7f0.png",
        "picUrl": "http://yanxuan.nosdn.127.net/e074795f61a83292d0f20eb7d124e2ac.png",
        "level": "L2",
        "sortOrder": 1,
        "addTime": "2018-02-01 00:00:00",
        "updateTime": "2018-02-01 00:00:00",
        "deleted": false
      },
      {
        "id": 1015000,
        "name": "家具",
        "keywords": "",
        "desc": "大师级工艺",
        "pid": 1005000,
        "iconUrl": "http://yanxuan.nosdn.127.net/4f00675caefd0d4177892ad18bfc2df6.png",
        "picUrl": "http://yanxuan.nosdn.127.net/d5d41841136182bf49c1f99f5c452dd6.png",
        "level": "L2",
        "sortOrder": 7,
        "addTime": "2018-02-01 00:00:00",
        "updateTime": "2018-02-01 00:00:00",
        "deleted": false
      },
      {
        "id": 1017000,
        "name": "宠物",
        "keywords": "",
        "desc": "抑菌除味，打造宠物舒适空间",
        "pid": 1005000,
        "iconUrl": "http://yanxuan.nosdn.127.net/a0352c57c60ce4f68370ecdab6a30857.png",
        "picUrl": "http://yanxuan.nosdn.127.net/dae4d6e89ab8a0cd3e8da026e4660137.png",
        "level": "L2",
        "sortOrder": 10,
        "addTime": "2018-02-01 00:00:00",
        "updateTime": "2018-02-01 00:00:00",
        "deleted": false
      },
      {
        "id": 1020003,
        "name": "服饰",
        "keywords": "",
        "desc": "萌宝穿搭，柔软舒适触感",
        "pid": 1011000,
        "iconUrl": "http://yanxuan.nosdn.127.net/4e50f3c4e4d0a64cd0ad14cfc0b6bd17.png",
        "picUrl": "http://yanxuan.nosdn.127.net/004f5f96df4aeb0645abbd70c0637239.png",
        "level": "L2",
        "sortOrder": 1,
        "addTime": "2018-02-01 00:00:00",
        "updateTime": "2018-02-01 00:00:00",
        "deleted": false
      },
      {
        "id": 1032000,
        "name": "魔兽世界",
        "keywords": "",
        "desc": "艾泽拉斯的冒险，才刚刚开始",
        "pid": 1019000,
        "iconUrl": "http://yanxuan.nosdn.127.net/336f0186a9920eb0f93a3912f3662ffe.png",
        "picUrl": "http://yanxuan.nosdn.127.net/becfba90e8a5c95d403b8a6b9bb77825.png",
        "level": "L2",
        "sortOrder": 1,
        "addTime": "2018-02-01 00:00:00",
        "updateTime": "2018-02-01 00:00:00",
        "deleted": false
      },
      {
        "id": 1036000,
        "name": "夏凉",
        "keywords": "",
        "desc": "夏凉床品，舒适一夏",
        "pid": 1005000,
        "iconUrl": "http://yanxuan.nosdn.127.net/13ff4decdf38fe1a5bde34f0e0cc635a.png",
        "picUrl": "http://yanxuan.nosdn.127.net/bd17c985bacb9b9ab1ab6e9d66ee343c.png",
        "level": "L2",
        "sortOrder": 1,
        "addTime": "2018-02-01 00:00:00",
        "updateTime": "2018-02-01 00:00:00",
        "deleted": false
      }
    ]
  },
  "errmsg": "成功"
}