{
  "errno": 0,
  "data": {
    "total": 238,
    "pages": 24,
    "limit": 10,
    "page": 15,
    "list": [
      {
        "id": 1092005,
        "name": "木韵檀香黄铜笔",
        "brief": "缅甸黑檀与黄铜的结合，彰显贵气",
        "picUrl": "http://yanxuan.nosdn.127.net/ab1992495e0370f09386d418ad45220d.png",
        "isNew": false,
        "isHot": false,
        "counterPrice": 59,
        "retailPrice": 39
      },
      {
        "id": 1116005,
        "name": "条纹长袖海魂衫（女婴童）",
        "brief": "纯棉亲肤娃娃衫",
        "picUrl": "http://yanxuan.nosdn.127.net/71937456c3cd654f936f619201a79c09.png",
        "isNew": false,
        "isHot": false,
        "counterPrice": 99,
        "retailPrice": 79
      },
      {
        "id": 1116004,
        "name": "条纹长袖海魂衫（男婴童）",
        "brief": "A类一等品，无荧光承诺",
        "picUrl": "http://yanxuan.nosdn.127.net/14d3a47ccf52815baf6df308be6db5a6.png",
        "isNew": false,
        "isHot": false,
        "counterPrice": 99,
        "retailPrice": 79
      },
      {
        "id": 1130049,
        "name": "柔软凉爽天丝麻蚕丝填充夏凉被",
        "brief": "天然恒温凉感面料，蚕丝美肤透气保护",
        "picUrl": "http://yanxuan.nosdn.127.net/d88513f85b3617d734bde93af2c766c9.png",
        "isNew": false,
        "isHot": false,
        "counterPrice": 449,
        "retailPrice": 429
      },
      {
        "id": 1125011,
        "name": "格纹棉质衬衣（婴童）",
        "brief": "法式翻领 气质格纹",
        "picUrl": "http://yanxuan.nosdn.127.net/be9740b734087f294f59a6560b932bc1.png",
        "isNew": false,
        "isHot": false,
        "counterPrice": 159,
        "retailPrice": 139
      },
      {
        "id": 1125010,
        "name": "格纹棉质褶皱娃娃裙（婴童）",
        "brief": "彼得潘领 内搭短裤",
        "picUrl": "http://yanxuan.nosdn.127.net/f82995ccb2a2f6beddd4ad794f5da2a1.png",
        "isNew": false,
        "isHot": false,
        "counterPrice": 179,
        "retailPrice": 159
      },
      {
        "id": 1135057,
        "name": "梦幻系简约轻透莹白纱帘",
        "brief": "轻透柔软纱 朦胧细纹肌理",
        "picUrl": "http://yanxuan.nosdn.127.net/98c5e80b8e328687ce9c949314ebc41d.png",
        "isNew": false,
        "isHot": false,
        "counterPrice": 219,
        "retailPrice": 199
      },
      {
        "id": 1116008,
        "name": "棉双层纱波点娃娃裙（婴童）",
        "brief": "波点娃娃裙搭配面包裤",
        "picUrl": "http://yanxuan.nosdn.127.net/149a09a391ea5a888debf50b9dc4ed7b.png",
        "isNew": false,
        "isHot": false,
        "counterPrice": 119,
        "retailPrice": 99
      },
      {
        "id": 1019006,
        "name": "植物填充护颈夜交藤枕",
        "brief": "健康保护枕",
        "picUrl": "http://yanxuan.nosdn.127.net/60c3707837c97a21715ecc3986a744ce.png",
        "isNew": false,
        "isHot": true,
        "counterPrice": 119,
        "retailPrice": 99
      },
      {
        "id": 1181000,
        "name": "母亲节礼物-舒适安睡组合",
        "brief": "安心舒适是最好的礼物",
        "picUrl": "http://yanxuan.nosdn.127.net/1f67b1970ee20fd572b7202da0ff705d.png",
        "isNew": true,
        "isHot": false,
        "counterPrice": 2618,
        "retailPrice": 2598
      }
    ],
    "filterCategoryList": [
      {
        "id": 1005007,
        "name": "锅具",
        "keywords": "",
        "desc": "一口好锅，炖煮生活一日三餐",
        "pid": 1005001,
        "iconUrl": "http://yanxuan.nosdn.127.net/4aab4598017b5749e3b63309d25e9f6b.png",
        "picUrl": "http://yanxuan.nosdn.127.net/d2db0d1d0622c621a8aa5a7c06b0fc6d.png",
        "level": "L2",
        "sortOrder": 1,
        "addTime": "2018-02-01 00:00:00",
        "updateTime": "2018-02-01 00:00:00",
        "deleted": false
      },
      {
        "id": 1008001,
        "name": "毛巾",
        "keywords": "",
        "desc": "日本皇室专供，内野制造商出品",
        "pid": 1013001,
        "iconUrl": "http://yanxuan.nosdn.127.net/44ad9a739380aa6b7cf956fb2a06e7a7.png",
        "picUrl": "http://yanxuan.nosdn.127.net/c53d2dd5ba6b1cfb55bd42ea0783f051.png",
        "level": "L2",
        "sortOrder": 1,
        "addTime": "2018-02-01 00:00:00",
        "updateTime": "2018-02-01 00:00:00",
        "deleted": false
      },
      {
        "id": 1008002,
        "name": "布艺软装",
        "keywords": "",
        "desc": "各种风格软装装点你的家",
        "pid": 1005000,
        "iconUrl": "http://yanxuan.nosdn.127.net/8bbcd7de60a678846664af998f57e71c.png",
        "picUrl": "http://yanxuan.nosdn.127.net/2e2fb4f2856a021bbcd1b4c8400f2b06.png",
        "level": "L2",
        "sortOrder": 6,
        "addTime": "2018-02-01 00:00:00",
        "updateTime": "2018-02-01 00:00:00",
        "deleted": false
      },
      {
        "id": 1008008,
        "name": "被枕",
        "keywords": "",
        "desc": "守护你的睡眠时光",
        "pid": 1005000,
        "iconUrl": "http://yanxuan.nosdn.127.net/927bc33f7ae2895dd6c11cf91f5e3228.png",
        "picUrl": "http://yanxuan.nosdn.127.net/b43ef7cececebe6292d2f7f590522e05.png",
        "level": "L2",
        "sortOrder": 2,
        "addTime": "2018-02-01 00:00:00",
        "updateTime": "2018-02-01 00:00:00",
        "deleted": false
      },
      {
        "id": 1008009,
        "name": "床品件套",
        "keywords": "",
        "desc": "MUJI等品牌制造商出品",
        "pid": 1005000,
        "iconUrl": "http://yanxuan.nosdn.127.net/243e5bf327a87217ad1f54592f0176ec.png",
        "picUrl": "http://yanxuan.nosdn.127.net/81f671bd36bce05d5f57827e5c88dd1b.png",
        "level": "L2",
        "sortOrder": 4,
        "addTime": "2018-02-01 00:00:00",
        "updateTime": "2018-02-01 00:00:00",
        "deleted": false
      },
      {
        "id": 1008015,
        "name": "糕点",
        "keywords": "",
        "desc": "四季糕点，用心烘焙",
        "pid": 1005002,
        "iconUrl": "http://yanxuan.nosdn.127.net/93168242df456b5f7bf3c89653b3db76.png",
        "picUrl": "http://yanxuan.nosdn.127.net/66ea1d6ad602a8e441af7cada93bdc7a.png",
        "level": "L2",
        "sortOrder": 1,
        "addTime": "2018-02-01 00:00:00",
        "updateTime": "2018-02-01 00:00:00",
        "deleted": false
      },
      {
        "id": 1008016,
        "name": "灯具",
        "keywords": "",
        "desc": "一盏灯，温暖一个家",
        "pid": 1005000,
        "iconUrl": "http://yanxuan.nosdn.127.net/c48e0d9dcfac01499a437774a915842b.png",
        "picUrl": "http://yanxuan.nosdn.127.net/f702dc399d14d4e1509d5ed6e57acd19.png",
        "level": "L2",
        "sortOrder": 8,
        "addTime": "2018-02-01 00:00:00",
        "updateTime": "2018-02-01 00:00:00",
        "deleted": false
      },
      {
        "id": 1010002,
        "name": "内裤",
        "keywords": "",
        "desc": "来自李维斯、爱慕等制造商",
        "pid": 1010000,
        "iconUrl": "http://yanxuan.nosdn.127.net/364269344ed69adafe1b70ab7998fc50.png",
        "picUrl": "http://yanxuan.nosdn.127.net/0a7fe0a08c195ca2cf55d12cd3c30f09.png",
        "level": "L2",
        "sortOrder": 1,
        "addTime": "2018-02-01 00:00:00",
        "updateTime": "2018-02-01 00:00:00",
        "deleted": false
      },
      {
        "id": 1011004,
        "name": "家饰",
        "keywords": "",
        "desc": "装饰你的家",
        "pid": 1005000,
        "iconUrl": "http://yanxuan.nosdn.127.net/ab0df9445d985bf6719ac415313a8e88.png",
        "picUrl": "http://yanxuan.nosdn.127.net/79275db76b5865e6167b0fbd141f2d7e.png",
        "level": "L2",
        "sortOrder": 9,
        "addTime": "2018-02-01 00:00:00",
        "updateTime": "2018-02-01 00:00:00",
        "deleted": false
      },
      {
        "id": 1012001,
        "name": "功能箱包",
        "keywords": "",
        "desc": "范思哲、Coach等品牌制造商出品",
        "pid": 1008000,
        "iconUrl": "http://yanxuan.nosdn.127.net/3050a2b3052d766c4b460d4b766353a3.png",
        "picUrl": "http://yanxuan.nosdn.127.net/0645dcda6172118f9295630c2a6f234f.png",
        "level": "L2",
        "sortOrder": 1,
        "addTime": "2018-02-01 00:00:00",
        "updateTime": "2018-02-01 00:00:00",
        "deleted": false
      },
      {
        "id": 1012003,
        "name": "文具",
        "keywords": "",
        "desc": "找回书写的力量",
        "pid": 1012000,
        "iconUrl": "http://yanxuan.nosdn.127.net/e1743239e41ca9af76875aedc73be7f0.png",
        "picUrl": "http://yanxuan.nosdn.127.net/e074795f61a83292d0f20eb7d124e2ac.png",
        "level": "L2",
        "sortOrder": 1,
        "addTime": "2018-02-01 00:00:00",
        "updateTime": "2018-02-01 00:00:00",
        "deleted": false
      },
      {
        "id": 1015000,
        "name": "家具",
        "keywords": "",
        "desc": "大师级工艺",
        "pid": 1005000,
        "iconUrl": "http://yanxuan.nosdn.127.net/4f00675caefd0d4177892ad18bfc2df6.png",
        "picUrl": "http://yanxuan.nosdn.127.net/d5d41841136182bf49c1f99f5c452dd6.png",
        "level": "L2",
        "sortOrder": 7,
        "addTime": "2018-02-01 00:00:00",
        "updateTime": "2018-02-01 00:00:00",
        "deleted": false
      },
      {
        "id": 1017000,
        "name": "宠物",
        "keywords": "",
        "desc": "抑菌除味，打造宠物舒适空间",
        "pid": 1005000,
        "iconUrl": "http://yanxuan.nosdn.127.net/a0352c57c60ce4f68370ecdab6a30857.png",
        "picUrl": "http://yanxuan.nosdn.127.net/dae4d6e89ab8a0cd3e8da026e4660137.png",
        "level": "L2",
        "sortOrder": 10,
        "addTime": "2018-02-01 00:00:00",
        "updateTime": "2018-02-01 00:00:00",
        "deleted": false
      },
      {
        "id": 1020003,
        "name": "服饰",
        "keywords": "",
        "desc": "萌宝穿搭，柔软舒适触感",
        "pid": 1011000,
        "iconUrl": "http://yanxuan.nosdn.127.net/4e50f3c4e4d0a64cd0ad14cfc0b6bd17.png",
        "picUrl": "http://yanxuan.nosdn.127.net/004f5f96df4aeb0645abbd70c0637239.png",
        "level": "L2",
        "sortOrder": 1,
        "addTime": "2018-02-01 00:00:00",
        "updateTime": "2018-02-01 00:00:00",
        "deleted": false
      },
      {
        "id": 1032000,
        "name": "魔兽世界",
        "keywords": "",
        "desc": "艾泽拉斯的冒险，才刚刚开始",
        "pid": 1019000,
        "iconUrl": "http://yanxuan.nosdn.127.net/336f0186a9920eb0f93a3912f3662ffe.png",
        "picUrl": "http://yanxuan.nosdn.127.net/becfba90e8a5c95d403b8a6b9bb77825.png",
        "level": "L2",
        "sortOrder": 1,
        "addTime": "2018-02-01 00:00:00",
        "updateTime": "2018-02-01 00:00:00",
        "deleted": false
      },
      {
        "id": 1036000,
        "name": "夏凉",
        "keywords": "",
        "desc": "夏凉床品，舒适一夏",
        "pid": 1005000,
        "iconUrl": "http://yanxuan.nosdn.127.net/13ff4decdf38fe1a5bde34f0e0cc635a.png",
        "picUrl": "http://yanxuan.nosdn.127.net/bd17c985bacb9b9ab1ab6e9d66ee343c.png",
        "level": "L2",
        "sortOrder": 1,
        "addTime": "2018-02-01 00:00:00",
        "updateTime": "2018-02-01 00:00:00",
        "deleted": false
      }
    ]
  },
  "errmsg": "成功"
}