{
  "errno": 0,
  "data": {
    "total": 37,
    "pages": 7,
    "limit": 6,
    "page": 1,
    "list": [
      {
        "id": 1006002,
        "name": "轻奢纯棉刺绣水洗四件套",
        "brief": "设计师原款，精致绣花",
        "picUrl": "http://yanxuan.nosdn.127.net/8ab2d3287af0cefa2cc539e40600621d.png",
        "isNew": false,
        "isHot": false,
        "counterPrice": 919,
        "retailPrice": 899
      },
      {
        "id": 1010000,
        "name": "澳洲纯羊毛盖毯 加厚款",
        "brief": "温暖加厚设计",
        "picUrl": "http://yanxuan.nosdn.127.net/3bec70b85337c3eec182e54380ef7370.png",
        "isNew": false,
        "isHot": false,
        "counterPrice": 419,
        "retailPrice": 399
      },
      {
        "id": 1010001,
        "name": "澳洲纯羊毛盖毯 舒适款",
        "brief": "100%澳洲美利奴羊毛",
        "picUrl": "http://yanxuan.nosdn.127.net/a8b0a5def7d64e411dd98bdfb1fc989b.png",
        "isNew": false,
        "isHot": false,
        "counterPrice": 319,
        "retailPrice": 299
      },
      {
        "id": 1021004,
        "name": "澳洲羊羔毛AB面盖毯",
        "brief": "冬暖夏凉，吸湿排汗。",
        "picUrl": "http://yanxuan.nosdn.127.net/654b02045fde802b51d5bbf09a8b75f2.png",
        "isNew": false,
        "isHot": false,
        "counterPrice": 319,
        "retailPrice": 299
      },
      {
        "id": 1021010,
        "name": "色织水洗棉纯色四件套",
        "brief": "做旧褶皱感，亲肤舒适",
        "picUrl": "http://yanxuan.nosdn.127.net/25d734cc0b2eae8f63f9deb1e4ad5f64.png",
        "isNew": false,
        "isHot": false,
        "counterPrice": 319,
        "retailPrice": 299
      },
      {
        "id": 1022000,
        "name": "意式毛线绣球四件套",
        "brief": "浪漫毛线绣球，简约而不简单",
        "picUrl": "http://yanxuan.nosdn.127.net/5350e35e6f22165f38928f3c2c52ac57.png",
        "isNew": false,
        "isHot": true,
        "counterPrice": 319,
        "retailPrice": 299
      }
    ]
  },
  "errmsg": "成功"
}