{
  "errno": 0,
  "data": {
    "total": 9,
    "pages": 2,
    "limit": 6,
    "page": 1,
    "list": [
      {
        "id": 1006051,
        "name": "皇室御用超柔毛巾",
        "brief": "至柔至软，热销50万条",
        "picUrl": "http://yanxuan.nosdn.127.net/ad5a317216f9da495b144070ecf1f957.png",
        "isNew": false,
        "isHot": false,
        "counterPrice": 79,
        "retailPrice": 59
      },
      {
        "id": 1009027,
        "name": "皇室御用超柔毛巾80s",
        "brief": "轻柔舒适不掉毛",
        "picUrl": "http://yanxuan.nosdn.127.net/71cfd849335c498dee3c54d1eb823c17.png",
        "isNew": false,
        "isHot": false,
        "counterPrice": 99,
        "retailPrice": 79
      },
      {
        "id": 1021000,
        "name": "埃及进口长绒棉毛巾",
        "brief": "厚实舒适",
        "picUrl": "http://yanxuan.nosdn.127.net/7191f2599c7fe44ed4cff7a76e853154.png",
        "isNew": false,
        "isHot": false,
        "counterPrice": 59,
        "retailPrice": 39
      },
      {
        "id": 1021001,
        "name": "全棉进口埃及长绒棉浴巾",
        "brief": "加大加厚埃及棉",
        "picUrl": "http://yanxuan.nosdn.127.net/fd5a8622ee1a7dfd4b57b938ebf25b24.png",
        "isNew": false,
        "isHot": false,
        "counterPrice": 119,
        "retailPrice": 99
      },
      {
        "id": 1111010,
        "name": "静谧森林简欧色织提花面巾",
        "brief": "静谧神秘，亲肤耐用",
        "picUrl": "http://yanxuan.nosdn.127.net/ef7efe55839e66993fb604dc3c2d9410.png",
        "isNew": false,
        "isHot": false,
        "counterPrice": 89,
        "retailPrice": 69
      },
      {
        "id": 1128010,
        "name": "趣味粉彩单面纱布亲肤毛巾",
        "brief": "单面毛圈，萌动生活",
        "picUrl": "http://yanxuan.nosdn.127.net/a84e8e6979f00efd9a728ed36b154753.png",
        "isNew": false,
        "isHot": false,
        "counterPrice": 49,
        "retailPrice": 29
      }
    ]
  },
  "errmsg": "成功"
}