{
  "errno": 0,
  "data": {
    "total": 9,
    "pages": 2,
    "limit": 6,
    "page": 1,
    "list": [
      {
        "id": 1033000,
        "name": "新生彩棉初衣礼盒（婴童）",
        "brief": "来自天然彩棉的礼物",
        "picUrl": "http://yanxuan.nosdn.127.net/9aab9a0bf4fef8fe3dc8c732bc22d4b7.png",
        "isNew": false,
        "isHot": false,
        "counterPrice": 219,
        "retailPrice": 199
      },
      {
        "id": 1116004,
        "name": "条纹长袖海魂衫（男婴童）",
        "brief": "A类一等品，无荧光承诺",
        "picUrl": "http://yanxuan.nosdn.127.net/14d3a47ccf52815baf6df308be6db5a6.png",
        "isNew": false,
        "isHot": false,
        "counterPrice": 99,
        "retailPrice": 79
      },
      {
        "id": 1116005,
        "name": "条纹长袖海魂衫（女婴童）",
        "brief": "纯棉亲肤娃娃衫",
        "picUrl": "http://yanxuan.nosdn.127.net/71937456c3cd654f936f619201a79c09.png",
        "isNew": false,
        "isHot": false,
        "counterPrice": 99,
        "retailPrice": 79
      },
      {
        "id": 1116008,
        "name": "棉双层纱波点娃娃裙（婴童）",
        "brief": "波点娃娃裙搭配面包裤",
        "picUrl": "http://yanxuan.nosdn.127.net/149a09a391ea5a888debf50b9dc4ed7b.png",
        "isNew": false,
        "isHot": false,
        "counterPrice": 119,
        "retailPrice": 99
      },
      {
        "id": 1125010,
        "name": "格纹棉质褶皱娃娃裙（婴童）",
        "brief": "彼得潘领 内搭短裤",
        "picUrl": "http://yanxuan.nosdn.127.net/f82995ccb2a2f6beddd4ad794f5da2a1.png",
        "isNew": false,
        "isHot": false,
        "counterPrice": 179,
        "retailPrice": 159
      },
      {
        "id": 1125011,
        "name": "格纹棉质衬衣（婴童）",
        "brief": "法式翻领 气质格纹",
        "picUrl": "http://yanxuan.nosdn.127.net/be9740b734087f294f59a6560b932bc1.png",
        "isNew": false,
        "isHot": false,
        "counterPrice": 159,
        "retailPrice": 139
      }
    ]
  },
  "errmsg": "成功"
}