{
  "errno": 0,
  "data": {
    "total": 39,
    "pages": 7,
    "limit": 6,
    "page": 1,
    "list": [
      {
        "id": 1009024,
        "name": "日式和风懒人沙发",
        "brief": "优质莱卡纯棉，和风家居新体验",
        "picUrl": "http://yanxuan.nosdn.127.net/149dfa87a7324e184c5526ead81de9ad.png",
        "isNew": false,
        "isHot": false,
        "counterPrice": 619,
        "retailPrice": 599
      },
      {
        "id": 1015007,
        "name": "典雅美式全棉刺绣抱枕",
        "brief": "典雅毛线绣，精致工艺",
        "picUrl": "http://yanxuan.nosdn.127.net/a2045004de8a6225289376ad54317fc8.png",
        "isNew": false,
        "isHot": false,
        "counterPrice": 79,
        "retailPrice": 59
      },
      {
        "id": 1020000,
        "name": "升级款记忆绵护椎腰靠",
        "brief": "人体工学设计，缓解腰背疼痛",
        "picUrl": "http://yanxuan.nosdn.127.net/819fdf1f635a694166bcfdd426416e8c.png",
        "isNew": false,
        "isHot": false,
        "counterPrice": 99,
        "retailPrice": 79
      },
      {
        "id": 1030001,
        "name": "160*230羊毛手工地毯",
        "brief": "印度进口，手工编织，简约百搭",
        "picUrl": "http://yanxuan.nosdn.127.net/88dc5d80c6f84102f003ecd69c86e1cf.png",
        "isNew": false,
        "isHot": false,
        "counterPrice": 989,
        "retailPrice": 969
      },
      {
        "id": 1030002,
        "name": "160*230羊毛圈绒枪刺地毯",
        "brief": "印度进口，手工枪刺，简约百搭",
        "picUrl": "http://yanxuan.nosdn.127.net/8b9328496990357033d4259fda250679.png",
        "isNew": false,
        "isHot": false,
        "counterPrice": 919,
        "retailPrice": 899
      },
      {
        "id": 1030003,
        "name": "160*230羊毛手工几何地毯",
        "brief": "几何图案，打造立体的时尚感",
        "picUrl": "http://yanxuan.nosdn.127.net/1d1ab099dc0e254c15e57302e78e200b.png",
        "isNew": false,
        "isHot": false,
        "counterPrice": 1489,
        "retailPrice": 1469
      }
    ]
  },
  "errmsg": "成功"
}