{
  "errno": 0,
  "data": {
    "total": 7,
    "pages": 2,
    "limit": 6,
    "page": 1,
    "list": [
      {
        "id": 1085019,
        "name": "20寸 纯PC“铝框”（非全铝）登机箱",
        "brief": "铝质包角，牢固抗摔",
        "picUrl": "http://yanxuan.nosdn.127.net/65c955a7a98e84d44ca30bb88a591eac.png",
        "isNew": false,
        "isHot": false,
        "counterPrice": 369,
        "retailPrice": 349
      },
      {
        "id": 1086052,
        "name": "20寸 铝镁合金登机箱",
        "brief": "时尚金属箱，奢品质感",
        "picUrl": "http://yanxuan.nosdn.127.net/93171a281c4ed272c007a050816e6f6c.png",
        "isNew": false,
        "isHot": false,
        "counterPrice": 879,
        "retailPrice": 859
      },
      {
        "id": 1113019,
        "name": "20寸 PC膜拉链登机箱",
        "brief": "热卖9万只，网易人手1只",
        "picUrl": "http://yanxuan.nosdn.127.net/ad504bb389039ff35c4cd6ae912be87e.png",
        "isNew": false,
        "isHot": false,
        "counterPrice": 228,
        "retailPrice": 208
      },
      {
        "id": 1114011,
        "name": "104升 纯PC拉链斜纹拉杆箱",
        "brief": "104升的体积，90升的价格",
        "picUrl": "http://yanxuan.nosdn.127.net/196b5ce11930b4eadaec563cb0406634.png",
        "isNew": false,
        "isHot": false,
        "counterPrice": 319,
        "retailPrice": 299
      },
      {
        "id": 1143016,
        "name": "112升 纯PC拉链斜纹拉杆箱",
        "brief": "容量升级，全家一箱搞定",
        "picUrl": "http://yanxuan.nosdn.127.net/e56c6239ee4a641ce2a4565c6babb43e.png",
        "isNew": false,
        "isHot": false,
        "counterPrice": 339,
        "retailPrice": 319
      },
      {
        "id": 1152101,
        "name": "魔兽世界 部落 奥格瑞玛 拉杆箱 可登机",
        "brief": "18寸，可携带登机",
        "picUrl": "http://yanxuan.nosdn.127.net/c1c62211a17b71a634fa0c705d11fb42.png",
        "isNew": false,
        "isHot": true,
        "counterPrice": 908,
        "retailPrice": 888
      }
    ]
  },
  "errmsg": "成功"
}