{
  "errno": 0,
  "data": {
    "total": 9,
    "pages": 2,
    "limit": 6,
    "page": 1,
    "list": [
      {
        "id": 1056002,
        "name": "男式玩色内裤",
        "brief": "德国工艺，多色随搭",
        "picUrl": "http://yanxuan.nosdn.127.net/922fdbe007033f7a88f7ebc57c3d1e75.png",
        "isNew": false,
        "isHot": false,
        "counterPrice": 79,
        "retailPrice": 59
      },
      {
        "id": 1074001,
        "name": "男式莫代尔无痕内裤",
        "brief": "Bemis技术，极简无痕",
        "picUrl": "http://yanxuan.nosdn.127.net/73567265b04a9998f64419186ddd8531.png",
        "isNew": false,
        "isHot": false,
        "counterPrice": 79,
        "retailPrice": 59
      },
      {
        "id": 1092025,
        "name": "Let it go男式纯棉免洗内裤",
        "brief": "伽玛射线安心杀菌",
        "picUrl": "http://yanxuan.nosdn.127.net/56a46e9a4832587471c0f9ad7c1b7d85.png",
        "isNew": false,
        "isHot": false,
        "counterPrice": 39.9,
        "retailPrice": 19.9
      },
      {
        "id": 1092026,
        "name": "Let it go女式纯棉免洗内裤",
        "brief": "100%纯棉，出行必备",
        "picUrl": "http://yanxuan.nosdn.127.net/83433f5a7ef69abda2544a53332a0fad.png",
        "isNew": false,
        "isHot": false,
        "counterPrice": 39.9,
        "retailPrice": 19.9
      },
      {
        "id": 1113010,
        "name": "男式丝滑莫代尔平角内裤",
        "brief": "Jockey供应商，亲肤贴合",
        "picUrl": "http://yanxuan.nosdn.127.net/2d0920b51331bb1636330ad8e07d1b97.png",
        "isNew": false,
        "isHot": false,
        "counterPrice": 79,
        "retailPrice": 59
      },
      {
        "id": 1113011,
        "name": "女式丝滑莫代尔三角内裤",
        "brief": "Jockey工厂，顺滑爽肤",
        "picUrl": "http://yanxuan.nosdn.127.net/7a683f68fc988df299b5cfe6273d6fb7.png",
        "isNew": false,
        "isHot": false,
        "counterPrice": 69,
        "retailPrice": 49
      }
    ]
  },
  "errmsg": "成功"
}