{
  "errno": 0,
  "data": {
    "total": 49,
    "pages": 5,
    "limit": 10,
    "page": 5,
    "list": [
      {
        "id": 1003000,
        "name": "Carters制造商",
        "desc": "来自Carters大牌代工厂生产，\n严选纯天然材料，无荧光不添加，\nITS安心标志权威检测，安全护航。",
        "picUrl": "http://yanxuan.nosdn.127.net/efe9131599ced0297213e6ec67eb2174.png",
        "floorPrice": 19.9
      },
      {
        "id": 1005001,
        "name": "Goody制造商",
        "desc": "严选深入美国百年发饰品牌Goody制造商，\n确保每把梳子做工精湛，养护头皮。\n戴安娜王妃的最爱，你也能拥有。",
        "picUrl": "http://yanxuan.nosdn.127.net/7c918f37de108f3687d69b39daab34eb.png",
        "floorPrice": 39
      },
      {
        "id": 1006000,
        "name": "范思哲制造商",
        "desc": "严选找寻意大利奢侈品牌范思哲Versace的制造商，\n致力于为用户带来精致、优雅、时尚的皮包，\n传承独特美感，体验品质生活。",
        "picUrl": "http://yanxuan.nosdn.127.net/c80ae035387495a61a4515906205efff.png",
        "floorPrice": 99
      },
      {
        "id": 1008000,
        "name": "WPC制造商",
        "desc": "严选寻找日本雨伞品牌W.P.C制造商，\n采用严谨工艺以及环保材料，\n沉淀15年行业经验，打造精致雨具。",
        "picUrl": "http://yanxuan.nosdn.127.net/c4e97cc87186ce17f9316f3ba39e220c.png",
        "floorPrice": 59
      },
      {
        "id": 1010001,
        "name": "竹宝堂制造商",
        "desc": "严选走访河北、安徽等制刷基地，\n选定竹宝堂、丝芙兰等品牌的制造商，\n严格把关生产与质检，与您一同追求美的生活。",
        "picUrl": "http://yanxuan.nosdn.127.net/61b0b7ae4f0163422009defbceaa41ad.jpg",
        "floorPrice": 29
      },
      {
        "id": 1010002,
        "name": "资生堂制造商",
        "desc": "发现美，成为美，是女性一生的追求。\n严选找寻资生堂代工厂，打造天然美妆产品，\n致力于带来更多美的体验和享受。",
        "picUrl": "http://yanxuan.nosdn.127.net/5449236b80d1e678dedee2f626cd67c4.png",
        "floorPrice": 29
      },
      {
        "id": 1015000,
        "name": "NITORI制造商",
        "desc": "宠物是人类最温情的陪伴，\n严选找寻日本最大家居品牌NITORI制造商，\n每一个脚印，都是为了更好地关怀你的TA",
        "picUrl": "http://yanxuan.nosdn.127.net/6f3d310601b18610553c675e0e14d107.png",
        "floorPrice": 69
      },
      {
        "id": 1016002,
        "name": "HUGO BOSS制造商",
        "desc": "严选深入德国知名奢侈品HUGO BOSS的制造商，\n开发睡衣、睡袍、休闲裤等轻奢品质家居服，\n希望你在家的每一天都优雅精致。",
        "picUrl": "http://yanxuan.nosdn.127.net/70ada9877b2efa82227437af3231fe50.png",
        "floorPrice": 45
      },
      {
        "id": 1018000,
        "name": "Sperry制造商",
        "desc": "严选团队对比多家硫化鞋制造商产品质量，\n走访多个制鞋工厂，最终选定Sperry品牌制造商，\n为你提供一双舒适有型的高品质帆布鞋。",
        "picUrl": "http://yanxuan.nosdn.127.net/2eb12d84037346441088267432da31c4.png",
        "floorPrice": 199
      }
    ]
  },
  "errmsg": "成功"
}