{
  "errno": 0,
  "data": {
    "total": 49,
    "pages": 5,
    "limit": 10,
    "page": 4,
    "list": [
      {
        "id": 1001010,
        "name": "星巴克制造商",
        "desc": "严选寻访全国保温杯制造企业，\n最终找到高端咖啡品牌星巴克的制造商，\n专注保温杯生产20年，品质与颜值兼备。",
        "picUrl": "http://yanxuan.nosdn.127.net/5668bc50f2f2e551891044525710dc84.png",
        "floorPrice": 39
      },
      {
        "id": 1001012,
        "name": "Wedgwood制造商",
        "desc": "严选寻访英国皇室御用陶瓷Wedgwood制造商，\n制模到成品，历经25道工序、7次检验、3次烧制，\n你看不见的地方，我们也在坚持。",
        "picUrl": "http://yanxuan.nosdn.127.net/68940e8e23f96dbeb3548d943d83d5e4.png",
        "floorPrice": 39
      },
      {
        "id": 1001013,
        "name": "Royal Doulton制造商",
        "desc": "严选深入英国最大骨瓷品牌Royal Doulton制造商， \n顶级英国瓷器的代名词，广受世界皇室喜爱。\n每件瓷器，都有自己的故事。",
        "picUrl": "http://yanxuan.nosdn.127.net/0de643a02043fd9680b11e21c452adaa.png",
        "floorPrice": 24.9
      },
      {
        "id": 1001015,
        "name": "日本KEYUCA制造商",
        "desc": "KEYUCA是日本餐具及料理用具品牌，\n遵循极简原木风，高端餐具体验。\n严选的餐具正是来自这一品牌制造商。",
        "picUrl": "http://yanxuan.nosdn.127.net/9b85b45f23da558be101dbcc273b1d6d.png",
        "floorPrice": 14.9
      },
      {
        "id": 1001016,
        "name": "爱慕制造商",
        "desc": "150家样品比对筛选，20家工厂深入走访，\n严选最终选定高端内衣爱慕制造商，\n20年品质保证，为你打造天然舒适的衣物。",
        "picUrl": "http://yanxuan.nosdn.127.net/5104f84110eac111968c63c18ebd62c0.png",
        "floorPrice": 35
      },
      {
        "id": 1001020,
        "name": "Ralph Lauren制造商",
        "desc": "我们与Ralph Lauren Home的制造商成功接洽，掌握先进的生产设备，传承品牌工艺和工序。追求生活品质的你，值得拥有。",
        "picUrl": "http://yanxuan.nosdn.127.net/9df78eb751eae2546bd3ee7e61c9b854.png",
        "floorPrice": 29
      },
      {
        "id": 1001037,
        "name": "新秀丽制造商",
        "desc": "严选为制作品质与颜值兼具的箱包，\n选定新秀丽、CK、Ricardo等品牌合作的制造商，\n拥有国内先进流水线20余条，实力保障品质。",
        "picUrl": "http://yanxuan.nosdn.127.net/80dce660938931956ee9a3a2b111bd37.jpg",
        "floorPrice": 59
      },
      {
        "id": 1001000,
        "name": "MUJI制造商",
        "desc": "严选精选了MUJI制造商和生产原料，\n用几乎零利润的价格，剔除品牌溢价，\n让用户享受原品牌的品质生活。",
        "picUrl": "http://yanxuan.nosdn.127.net/1541445967645114dd75f6b0edc4762d.png",
        "floorPrice": 12.9
      },
      {
        "id": 1001039,
        "name": "MK制造商",
        "desc": "严选为制造高品质的皮具，\n选择Michael Kors品牌合作的制造工厂，\n18年专业皮具生产经验，手工至美，品质保证。",
        "picUrl": "http://yanxuan.nosdn.127.net/fc9cd1309374f7707855de80522fb310.jpg",
        "floorPrice": 79
      },
      {
        "id": 1001045,
        "name": "罗莱制造商",
        "desc": "严选团队为打造吸湿透气柔软的蚕丝被，\n从蚕茧原材到温感性能，多次甄选测试\n选择罗莱制造商工厂，手工处理，优质舒适。",
        "picUrl": "http://yanxuan.nosdn.127.net/14122a41a4985d23e1a172302ee818e9.png",
        "floorPrice": 699
      }
    ]
  },
  "errmsg": "成功"
}