{
  "errno": 0,
  "data": {
    "total": 20,
    "pages": 2,
    "limit": 10,
    "page": 2,
    "list": [
      {
        "id": 286,
        "title": "无“油”无虑的甜蜜酥脆",
        "subtitle": "大家都知道，饮食组是严选体重最重的一组，基本上每个新人都能在一个月之内迅速长胖。...",
        "price": 0,
        "readCount": "15.6k",
        "picUrl": "https://yanxuan.nosdn.127.net/14931121822100127.jpg"
      },
      {
        "id": 287,
        "title": "严选新式样板间",
        "subtitle": "一种软装一个家",
        "price": 29.9,
        "readCount": "55.6k",
        "picUrl": "https://yanxuan.nosdn.127.net/14931970965550315.jpg"
      },
      {
        "id": 289,
        "title": "专业运动袜也可以高性价比",
        "subtitle": "越来越多运动人士意识到，运动鞋要购置好的，鞋里的运动袜也不可忽视。专业运动袜帮助...",
        "price": 0,
        "readCount": "11.9k",
        "picUrl": "https://yanxuan.nosdn.127.net/14932840600970609.jpg"
      },
      {
        "id": 291,
        "title": "舒适新主张",
        "subtitle": "如何挑选适合自己的好物？",
        "price": 29,
        "readCount": "67.8k",
        "picUrl": "https://yanxuan.nosdn.127.net/14939496197300723.jpg"
      },
      {
        "id": 294,
        "title": "这只锅，可以从祖母用到孙辈",
        "subtitle": "买100年传世珐琅锅送迷你马卡龙色小锅",
        "price": 149,
        "readCount": "108.1k",
        "picUrl": "https://yanxuan.nosdn.127.net/14937214454750141.jpg"
      },
      {
        "id": 295,
        "title": "他们在严选遇见的新生活",
        "subtitle": "多款商品直减中，最高直减400元",
        "price": 35.8,
        "readCount": "36.6k",
        "picUrl": "https://yanxuan.nosdn.127.net/14938092956370380.jpg"
      },
      {
        "id": 299,
        "title": "买过的人都说它是差旅神器",
        "subtitle": "许多人经历过旅途中内裤洗晾不便的烦恼，尤其与旅伴同居一室时，晾在卫生间里的内裤更...",
        "price": 0,
        "readCount": "28.7k",
        "picUrl": "https://yanxuan.nosdn.127.net/14938873919030679.jpg"
      },
      {
        "id": 300,
        "title": "秒杀化学洗涤剂的纯天然皂",
        "subtitle": "前段时间有朋友跟我抱怨，和婆婆住到一起才发现生活理念有太多不和。别的不提，光是洗...",
        "price": 0,
        "readCount": "15.3k",
        "picUrl": "https://yanxuan.nosdn.127.net/14939843143621089.jpg"
      },
      {
        "id": 313,
        "title": "一次解决5个节日送礼难题",
        "subtitle": "这些就是他们想要的礼物清单",
        "price": 59.9,
        "readCount": "7.8k",
        "picUrl": "https://yanxuan.nosdn.127.net/14942996754171334.jpg"
      },
      {
        "id": 314,
        "title": "关爱他成长的每一个足迹",
        "subtitle": "专业运动品牌同厂，毛毛虫鞋买二送一",
        "price": 0,
        "readCount": "6.4k",
        "picUrl": "https://yanxuan.nosdn.127.net/14943267735961674.jpg"
      }
    ]
  },
  "errmsg": "成功"
}