{
  "errno": 0,
  "data": {
    "total": 19,
    "pages": 5,
    "limit": 4,
    "page": 1,
    "list": [
      {
        "id": 264,
        "title": "设计师们推荐的应季好物",
        "subtitle": "原创设计春款系列上新",
        "price": 29.9,
        "readCount": "77.7k",
        "picUrl": "https://yanxuan.nosdn.127.net/14918201901050274.jpg",
        "sortOrder": 0,
        "goods": [],
        "addTime": "2018-02-01 00:00:00",
        "updateTime": "2018-02-01 00:00:00",
        "deleted": false,
        "content": "<img src=\"//yanxuan.nosdn.127.net/75c55a13fde5eb2bc2dd6813b4c565cc.jpg\">\n    <img src=\"//yanxuan.nosdn.127.net/e27e1de2b271a28a21c10213b9df7e95.jpg\">\n    <img src=\"//yanxuan.nosdn.127.net/9d413d1d28f753cb19096b533d53418d.jpg\">\n    <img src=\"//yanxuan.nosdn.127.net/64b0f2f350969e9818a3b6c43c217325.jpg\">\n    <img src=\"//yanxuan.nosdn.127.net/a668e6ae7f1fa45565c1eac221787570.jpg\">\n    <img src=\"//yanxuan.nosdn.127.net/0d4004e19728f2707f08f4be79bbc774.jpg\">\n    <img src=\"//yanxuan.nosdn.127.net/79ee021bbe97de7ecda691de6787241f.jpg\">"
      },
      {
        "id": 268,
        "title": "米饭好吃的秘诀：会呼吸的锅",
        "subtitle": "今年1月份，我们联系到了日本伊贺地区的长谷园，那里有着180年伊贺烧历史的窑厂。...",
        "price": 0,
        "readCount": "33.3k",
        "picUrl": "https://yanxuan.nosdn.127.net/14920623353130483.jpg",
        "sortOrder": 0,
        "goods": [],
        "addTime": "2018-02-01 00:00:00",
        "updateTime": "2018-02-01 00:00:00",
        "deleted": false,
        "content": "<img src=\"//yanxuan.nosdn.127.net/75c55a13fde5eb2bc2dd6813b4c565cc.jpg\">\n    <img src=\"//yanxuan.nosdn.127.net/e27e1de2b271a28a21c10213b9df7e95.jpg\">\n    <img src=\"//yanxuan.nosdn.127.net/9d413d1d28f753cb19096b533d53418d.jpg\">\n    <img src=\"//yanxuan.nosdn.127.net/64b0f2f350969e9818a3b6c43c217325.jpg\">\n    <img src=\"//yanxuan.nosdn.127.net/a668e6ae7f1fa45565c1eac221787570.jpg\">\n    <img src=\"//yanxuan.nosdn.127.net/0d4004e19728f2707f08f4be79bbc774.jpg\">\n    <img src=\"//yanxuan.nosdn.127.net/79ee021bbe97de7ecda691de6787241f.jpg\">"
      },
      {
        "id": 271,
        "title": "选式新懒人",
        "subtitle": "懒出格调，懒出好生活。",
        "price": 15,
        "readCount": "57.7k",
        "picUrl": "https://yanxuan.nosdn.127.net/14924199099661697.jpg",
        "sortOrder": 0,
        "goods": [],
        "addTime": "2018-02-01 00:00:00",
        "updateTime": "2018-02-01 00:00:00",
        "deleted": false,
        "content": "<img src=\"//yanxuan.nosdn.127.net/75c55a13fde5eb2bc2dd6813b4c565cc.jpg\">\n    <img src=\"//yanxuan.nosdn.127.net/e27e1de2b271a28a21c10213b9df7e95.jpg\">\n    <img src=\"//yanxuan.nosdn.127.net/9d413d1d28f753cb19096b533d53418d.jpg\">\n    <img src=\"//yanxuan.nosdn.127.net/64b0f2f350969e9818a3b6c43c217325.jpg\">\n    <img src=\"//yanxuan.nosdn.127.net/a668e6ae7f1fa45565c1eac221787570.jpg\">\n    <img src=\"//yanxuan.nosdn.127.net/0d4004e19728f2707f08f4be79bbc774.jpg\">\n    <img src=\"//yanxuan.nosdn.127.net/79ee021bbe97de7ecda691de6787241f.jpg\">"
      },
      {
        "id": 272,
        "title": "料理也要精细简单",
        "subtitle": "享受天然的味道，日子每天都好新鲜",
        "price": 69,
        "readCount": "125.6k",
        "picUrl": "https://yanxuan.nosdn.127.net/14925200530030186.jpg",
        "sortOrder": 0,
        "goods": [],
        "addTime": "2018-02-01 00:00:00",
        "updateTime": "2018-02-01 00:00:00",
        "deleted": false,
        "content": "<img src=\"//yanxuan.nosdn.127.net/75c55a13fde5eb2bc2dd6813b4c565cc.jpg\">\n    <img src=\"//yanxuan.nosdn.127.net/e27e1de2b271a28a21c10213b9df7e95.jpg\">\n    <img src=\"//yanxuan.nosdn.127.net/9d413d1d28f753cb19096b533d53418d.jpg\">\n    <img src=\"//yanxuan.nosdn.127.net/64b0f2f350969e9818a3b6c43c217325.jpg\">\n    <img src=\"//yanxuan.nosdn.127.net/a668e6ae7f1fa45565c1eac221787570.jpg\">\n    <img src=\"//yanxuan.nosdn.127.net/0d4004e19728f2707f08f4be79bbc774.jpg\">\n    <img src=\"//yanxuan.nosdn.127.net/79ee021bbe97de7ecda691de6787241f.jpg\">"
      }
    ]
  },
  "errmsg": "成功"
}